{
  "AUTHOR" : "Cigh",
  "INSTALL_MSG" : "Repo added",
  "NAME" : "Violin Cogs",
  "SHORT" : "A short description, appears on !cog list",
  "DESCRIPTION" : "A longer description, appears on !cog info repo"
}